Module,CaseNo,CaseName,URL,Methods,Headers,Params,RequestBodyFileName,HttpCode,ResponseBodyFileName,Validations,byParameter,Variables,isFile,template,Account,Timeout,Sql
EddaController,1,getMyBanks-200,/v1/payments/edda/banks/me,Get,,,,200,,,,,,,,,,,
EddaController,2,getMyBanks-401,/v1/payments/edda/banks/me,Get,{Authorization=xxxx},,,401,,,,,,,,,,,
EddaController,3,getMyBanks-404,/v1/payments/edda/banks/me/me,Get,,,,404,,,,,,,,,,,
EddaController,4,findBankWithRules-200,/v1/payments/edda/banks/rules,Get,,,,200,,,,,,,,,,,
EddaController,5,findBankWithRules-401,/v1/payments/edda/banks/rules,Get,{Authorization=xxxx},,,401,,,,,,,,,,,
EddaController,6,findBankWithRules-404,/v1/payments/edda/banks/rulesss,Get,,,,404,,,,,,,,,,,
EddaController,7,getDefaultLimit-200,/v1/payments/edda/default-limit,Get,,,,200,,{'data.amount':'isNotNull'},,,,,,,,,
EddaController,8,getDefaultLimit-401,/v1/payments/edda/default-limit,Get,{Authorization=xxxx},,,401,,,,,,,,,,,
EddaController,9,getDefaultLimit-404,/v1/payments/edda/default-limit-limit,Get,,,,404,,,,,,,,,,,