Module,CaseNo,CaseName,URL,Methods,Headers,Params,RequestBodyFileName,HttpCode,ResponseBodyFileName,Validations,byParameter,Variables,isFile,template,Account,Timeout,Sql
FundTransferController,1,getBanks-200,/v1/payments/banks,Get,,,,200,,{'data.label':'isNotNull'},,,,,,,,,
FundTransferController,2,getBanks-401,/v1/payments/banks,Get,{Authorization=xxxx},,,401,,,,,,,,,,,
FundTransferController,3,getBanks-404,/v1/payments/banksbanks,Get,,,,404,,,,,,,,,,,
FundTransferController,4,checkTransferAccount-200,/v1/payments/check-account,Post,,,Welab/body/Check_transfer_account.json,200,,"{'message':'success','data':'isNull'}",,,,,,,
FundTransferController,5,checkTransferAccount-401,/v1/payments/check-account,Post,{Authorization=xxxx},,Welab/body/Check_transfer_account.json,401,,,,,,,,,
FundTransferController,6,checkTransferAccount-500,/v1/payments/check-account,Post,,,Welab/body/Check_transfer_account_500.json,500,,,,,,,,,
FundTransferController,7,getPaymentSetting-200,/v1/payments/payment-setting,Get,,,,200,,{'data.bankAccount.number':'isNotNull'},,"data.bankAccount.number",,,,,,,
FundTransferController,8,getPaymentSetting-401,/v1/payments/payment-setting,Get,{Authorization=xxxx},,,401,,,,,,,,,,,
FundTransferController,9,getPaymentSetting-404,/v1/payments/payment-setting-setting,Get,,,,404,,,,,,,,,,,
FundTransferController,10,creditTransfer-200,/v1/payments/credit-transfer,Post,,,Welab/body/Credit_transfer.json,500,,,,,,,,,
FundTransferController,11,creditTransfer-401,/v1/payments/credit-transfer,Post,{Authorization=xxxx},,Welab/body/Credit_transfer.json,401,,,,,,,,,
FundTransferController,12,creditTransfer-403,/v1/payments/credit-transfer,Post,,,Welab/body/Credit_transfer_403.json,403,,{'code':'00005'},,,,,,,
FundTransferController,13,enquireCurrentDebtor-200,/v1/payments/debtor-enquiry,Get,,,,200,,{'data.balance':'isNotNull'},,,,,,,,,
FundTransferController,14,enquireCurrentDebtor-401,/v1/payments/debtor-enquiry,Get,{Authorization=xxxx},,,401,,,,,,,,,,,
FundTransferController,15,enquireCurrentDebtor-404,/v1/payments/debtor-enquiry-enquiry,Get,,,,404,,,,,,,,,,,