Module,CaseNo,CaseName,URL,Methods,Headers,Params,RequestBodyFileName,HttpCode,ResponseBodyFileName,Validations,byParameter,Variables,isFile,template,Account,Timeout,Sql
MessageCenterController,1,Retrieve Notification Info,/v1/message-center/notificationInfo,Get,,,,200,,{'data.status':'contains(READ)'},,,,,,,,,
MessageCenterController,2,Retrieve Notifications,/v1/message-center/notifications,Get,,returnSize=60,,200,,{'data[0].id':'isNotNull'},,"data.updatedAt[0]",,,,,,,
MessageCenterController,3,Retrieve Notifications,/v1/message-center/notificationInfo,Put,,,Welab/body/Update_Notification_Info.json,200,,"{'data':'isNull','message':'success'}",,,,,,,