﻿Module  ,CaseNo,CaseName                     ,URL                                   ,Method,Headers,Params                                             ,RequestBodyFileName             ,HttpCode,ResponseBodyFileName,Validations                                                                                        ,byParameter,Variables                         ,isFile,template,Account         ,Timeout
IAO_crr1,1     ,Fetch Basic Account Status   ,/v1/wealth/account                    ,Get   ,       ,                                                   ,                                ,200     ,                    ,                                                                                                   ,           ,data.mutualFundServicesAccount    ,      ,        ,sta00232:Aa123321,,,
IAO_crr1,2     ,Fetch Personal Information   ,/v1/wealth/customer/personal-info     ,Get   ,       ,                                                   ,                                ,200     ,                    ,{'data.contact.chineseName':'equals(大文)'}                                                          ,           ,                                  ,      ,,,,,
IAO_crr1,3     ,Fetch Non-CRPQ Questions     ,/v1/wealth/questionnaires/non-crpq    ,Get   ,       ,                                                   ,                                ,200     ,                    ,{'data.questions.questionKey[1]':'equals(INH01)'}                                                  ,           ,                                  ,      ,,,,,
IAO_crr1,4     ,Submit IAO Request           ,/v1/wealth/investment-instruction     ,Post  ,       ,                                                   ,Welab/body/NonCRPQAnswer.json   ,200     ,                    ,{'data.vcValue':'equals(Not VC)'}                                                                  ,           ,                                  ,      ,,,,,
IAO_crr1,5     ,Submit File / pre upload     ,/v1/wealth/documents/pre-upload       ,Get   ,       ,docType=ADDRESS_PROOF&fileName=V2VsYWIgQ2xvdWQg.pdf,                                ,200     ,                    ,{'data.docName':'contains(pdf)'}                                                                   ,           ,"data.invtAccDocId,data.publicKey",      ,,,,,
IAO_crr1,6     ,Submit File  upload          ,/v1/wealth/documents/upload           ,Post  ,       ,                                                   ,Welab/body/submitUploadFile.json,200     ,                    ,{'data':'1'}                                                                                       ,           ,                                  ,      ,,,,,
IAO_crr1,7     ,Fetch CRPQ Questions         ,/v1/wealth/questionnaires/crpq        ,Get   ,       ,                                                   ,                                ,200     ,                    ,"{'data.questions.questionKey[0]':'equals(RAI01)','data.questions.questionKey[0]':'equals(RAI01)'}",           ,                                  ,      ,,,,,
IAO_crr1,8     ,Submit CRPQ Answers          ,/v1/wealth/questionnaires/answers     ,Post  ,       ,                                                   ,Welab/body/CRPQAnswer.json      ,200     ,                    ,{'data.crrDescription':'equals(Very Conservative)'}                                                ,           ,                                  ,      ,,,,,
IAO_crr1,9     ,Fetch CRPQ Questions & Answer,/v1/wealth/questionnaires/answers/crpq,Get   ,       ,                                                   ,                                ,200     ,                    ,"{'data.questions.options[0].optionKey[0]':'equals(RAI01a)'}"                                      ,           ,                                  ,      ,,,,,
IAO_crr1,10    ,Fetch Risk Profile Result    ,/v1/wealth/risk-profiles              ,Get   ,       ,                                                   ,                                ,200     ,                    ,{'data.questionnaireName':'contains(CRPQ_V1)'}                                                     ,           ,                                  ,      ,,,,,
IAO_crr1,11    ,Fetch IAO Application status ,/v1/wealth/investment-account-status  ,Get   ,       ,                                                   ,                                ,200     ,                    ,"{'data.crr':'equals(1)'}"                                                                         ,           ,data.accOpeningStatus             ,      ,,,,,

