﻿Module                    ,CaseNo,CaseName                                       ,URL                                  ,Method,Headers,Params,RequestBodyFileName                          ,HttpCode,ResponseBodyFileName,Validations,byParameter,Variables,isFile,template,Account,Timeout,Sql
CustInvtEventLogController,1     ,query the list of customer investment event log,/v1/wealth/cust-invt-event-log/list  ,Get   ,       ,      ,                                             ,200     ,                    ,           ,           ,         ,      ,        ,       ,,,
CustInvtEventLogController,2     ,create customer investment event log           ,/v1/wealth/cust-invt-event-log/create,Post  ,       ,      ,Welab/body/CreateCustomerInvestmentEvent.json,200     ,                    ,           ,           ,         ,      ,        ,       ,,,
