Module         ,CaseNo,CaseName                                    ,URL                                       ,Method,Headers                       ,Params,RequestBodyFileName,HttpCode,ResponseBodyFileName,Validations                 ,byParameter,Variables,isFile,template,Account,Timeout,Sql
WmOpsController,1     ,Learn more 200                              ,/v1/wealth/learn-more                     ,Get   ,{'Accept-Language':'en-US'}   ,      ,                   ,200     ,                    ,{'data':'contains(en)'}     ,           ,         ,      ,,,,,,
WmOpsController,2     ,Learn more 401                              ,/v1/wealth/learn-more                     ,Get   ,{Authorization=xxxx}          ,      ,                   ,401     ,                    ,                            ,           ,         ,      ,,,,,,
WmOpsController,3     ,Learn more zh-HK                            ,/v1/wealth/learn-more                     ,Get   ,Welab/headers/fetch-zh-HK.json,      ,                   ,200     ,                    ,{'data':'contains(zh)'}     ,           ,         ,      ,,,,,,
WmOpsController,4     ,Get latest learn more link by language      ,/v1/wealth/static-doc/LEARN_MORE          ,Get   ,{'Accept-Language':'en-US'}   ,      ,                   ,200     ,                    ,{'data':'contains(en)'}     ,           ,         ,      ,,,,,,
WmOpsController,5     ,Get latest learn more link by language-FATCA,/v1/wealth/static-doc/FATCA               ,Get   ,{'Accept-Language':'en-US'}   ,      ,                   ,200     ,                    ,{'data':'contains(fatca)'}  ,           ,         ,      ,,,,,,
WmOpsController,6     ,Get latest learn more link by language-TERMS,/v1/wealth/static-doc/TERMS_AND_CONDITIONS,Get   ,{'Accept-Language':'en-US'}   ,      ,                   ,200     ,                    ,{'data':'contains(terms)'}  ,           ,         ,      ,,,,,,
WmOpsController,7     ,Get latest learn more link by language-NOTES,/v1/wealth/static-doc/IMPORTANT_NOTES     ,Get   ,{'Accept-Language':'en-US'}   ,      ,                   ,200     ,                    ,{'data':'contains(notes)'}  ,           ,         ,      ,,,,,,
WmOpsController,8     ,Get latest learn more link by language-401  ,/v1/wealth/static-doc/IMPORTANT_NOTES     ,Get   ,{Authorization=xxxx}          ,      ,                   ,401     ,                    ,                            ,           ,         ,      ,,,,,,
WmOpsController,9     ,Get latest learn more link by language-500  ,/v1/wealth/static-doc/1234                ,Get   ,                              ,      ,                   ,500     ,                    ,                            ,           ,         ,      ,,,,,,
WmOpsController,10    ,Get latest learn more link by language-ZH   ,/v1/wealth/static-doc/FATCA               ,Get   ,{'Accept-Language':'zh-HK'}   ,      ,                   ,200     ,                    ,{'data':'contains(version)'},           ,         ,      ,,,,,,
