Module,CaseNo,CaseName,URL,Methods,Headers,Params,RequestBodyFileName,HttpCode,ResponseBodyFileName,Validations,byParameter,Variables,isFile,template,Account,Timeout,Sql
PayeeController,1,getPayees-200,/v1/payees,Get,,,,200,,{'data.payeeAcctId':'isNotNull'},,,,,,,,,
PayeeController,2,getPayees-401,/v1/payees,Get,{Authorization=xxxx},,,401,,,,,,,,,,,
PayeeController,3,getPayees-500,/v1/payees,Put,,,,500,,,,,,,,,,,
PayeeController,4,enquiryExisted-200,/v1/payees/enquiry,Post,,,Welab/body/Enquiry_Existed.json,200,,{'data.existed':'isNotNull'},,,,,,,
PayeeController,5,enquiryExisted-401,/v1/payees/enquiry,Post,{Authorization=xxxx},,Welab/body/Enquiry_Existed.json,401,,,,,,,,,
PayeeController,6,enquiryExisted-500,/v1/payees/enquiry,Post,,,Welab/body/Enquiry_Existed_500.json,500,,,,,,,,,
PayeeController,7,getOtherBankAccounts-200,/v1/payees/me,Get,,,,200,,{'code':'SUCCESS'},,,,,,,,,
PayeeController,8,getOtherBankAccounts-401,/v1/payees/me,Get,{Authorization=xxxx},,,401,,,,,,,,,,,