Module,CaseNo,CaseName,URL,Methods,Headers,Params,RequestBodyFileName,HttpCode,ResponseBodyFileName,Validations,byParameter,Variables,isFile,template,Account,Timeout,Sql
PaymentLimitController,1,getPaymentLimits-200,/v1/payments/limits,Get,,,,200,,{'data.transactionTypeId[0]':'equals(DTTL)'},,,,,,,,,
PaymentLimitController,2,getPaymentLimits-401,/v1/payments/limits,Get,{Authorization=xxxx},,,401,,,,,,,,,,,
PaymentLimitController,3,getPaymentLimits-500,/v1/payments/limits,Put,,,,500,,,,,,,,,,,
