﻿Module,CaseNo,CaseName,URL,Method,Headers,Params,RequestBodyFileName,HttpCode,ResponseBodyFileName,Validations,byParameter,Variables,isFile,template,Account,Timeout,Sql
DocumentController,1,Submit File / pre upload,/v1/wealth/documents/pre-upload,Get,,docType=ADDRESS_PROOF&fileName=V2VsYWIgQ2xvdWQg.pdf,,200,,{'data.docName':'contains(pdf)'},,"data.invtAccDocId,data.publicKey", , , , , ,
DocumentController,2,Submit File  upload,/v1/wealth/documents/upload,Post,,,Welab/body/submitUploadFile.json,200,,{'data':'1'},,,,,,,,
DocumentController,3,Submit File / pre upload,/v1/wealth/documents/pre-upload,Get,,docType=ADDRESS_PROOF&fileName=1212V2VsYWIgQ2xvdWQg.pdf,,200,,{'data.docName':'contains(pdf)'},,"data.invtAccDocId,data.publicKey", , , , , ,
DocumentController,4,Submit File  upload,/v1/wealth/documents/upload,Post,,,Welab/body/submitUploadFile.json,200,,{'data':'1'},,,,,,,,
DocumentController,5,Submit File / pre upload,/v1/wealth/documents/pre-upload,Get,,docType=ADDRESS_PROOF&fileName=1212V2VsYWIgQ2xvdWQg.png,,200,,{'data.docName':'contains(png)'},,"data.invtAccDocId,data.publicKey",,,,,,
DocumentController,6,Submit File  upload,/v1/wealth/documents/upload,Post,,,Welab/body/submitUploadFile.json,200,,{'data':'1'},,,,,,,,
DocumentController,7,Submit File / pre upload,/v1/wealth/documents/pre-upload,Get,,docType=ADDRESS_PROOF&fileName=1212V2VsYWIgQ2xvdWQg.jpeg,,200,,{'data.docName':'contains(jpeg)'},,"data.invtAccDocId,data.publicKey",,,,,,
DocumentController,8,Submit File  upload,/v1/wealth/documents/upload,Post,,,Welab/body/submitUploadFile.json,200,,{'data':'1'},,,,,,,,
DocumentController,9,Submit File / pre upload,/v1/wealth/documents/pre-upload,Get,,docType=ADDRESS_PROOF&fileName=1212V2VsYWIgQ2xvdWQg.csv,,200,,{'data.docName':'contains(csv)'},,"data.invtAccDocId,data.publicKey",,,,,,
DocumentController,10,Submit File  upload,/v1/wealth/documents/upload,Post,,,Welab/body/submitUploadFile.json,200,,{'data':'1'},,,,,,,,
DocumentController,11,Submit File / pre upload,/v1/wealth/documents/pre-upload,Get,,docType=ADDRESS_PROOF&fileName=1212V2VsYWIgQ2xvdWQg.docx,,200,,{'data.docName':'contains(docx)'},,"data.invtAccDocId,data.publicKey",,,,,,
DocumentController,12,Submit File  upload,/v1/wealth/documents/upload,Post,,,Welab/body/submitUploadFile.json,200,,{'data':'1'},,,,,,,,
DocumentController,13,Submit File / pre upload,/v1/wealth/documents/pre-upload,Get,,docType=ADDRESS_PROOF&fileName=测试關.pdf,,200,,{'data.docName':'contains(pdf)'},,"data.invtAccDocId,data.publicKey",,,,,,
DocumentController,14,Submit File  upload,/v1/wealth/documents/upload,Post,,,Welab/body/submitUploadFile.json,200,,{'data':'1'},,,,,,,,
DocumentController,15,Submit File / pre upload,/v1/wealth/documents/pre-upload,Get,,docType=ADDRESS_PROOF&fileName=a.pdf,,200,,{'data.docName':'contains(pdf)'},,"data.invtAccDocId,data.publicKey",,,,,,
DocumentController,16,Submit File  upload,/v1/wealth/documents/upload,Post,,,Welab/body/submitUploadFile.json,200,,{'data':'1'},,,,,,,,
DocumentController,17,Submit File / pre upload,/v1/wealth/documents/pre-upload,Get,,docType=ADDRESS_PROOF&fileName=abcdefghijklmnopqrstuvwxyzabcdefghijklmnopqrstuvwxyz.pdf,,200,,{'data.docName':'contains(pdf)'},,"data.invtAccDocId,data.publicKey",,,,,,
DocumentController,18,Submit File  upload,/v1/wealth/documents/upload,Post,,,Welab/body/submitUploadFile.json,200,,{'data':'1'},,,,,,,,
DocumentController,19,Submit File / pre upload,/v1/wealth/documents/pre-upload,Get,,docType=ADDRESS_PROOF&fileName=abcdefghijklmn_#*()-~.lall.pdf,,200,,{'data.docName':'contains(pdf)'},,"data.invtAccDocId,data.publicKey",,,,,,
DocumentController,20,Submit File  upload,/v1/wealth/documents/upload,Post,,,Welab/body/submitUploadFile.json,200,,{'data':'1'},,,,,,,,
DocumentController,21,Submit File / pre upload,/v1/wealth/documents/pre-upload,Get,,docType=ADDRESS_PROOF&fileName=nofileType,,200,,{'data.docName':'contains(documents)'},,"data.invtAccDocId,data.publicKey",,,,,,
DocumentController,22,Submit File  upload,/v1/wealth/documents/upload,Post,,,Welab/body/submitUploadFile.json,200,,{'data':'1'},,,,,,,,
DocumentController,23,Submit File / pre upload,/v1/wealth/documents/pre-upload,Get,,docType=ADDRESS_PROOF&fileName=a.pdf,,200,,{'data.docName':'contains(documents)'},,"data.invtAccDocId,data.publicKey",,,,,,
DocumentController,24,Submit File  upload,/v1/wealth/documents/upload,Post,,,Welab/body/submitUploadFile_incorrectID.json,500,,,,,,,,,,
DocumentController,25,Submit File / pre upload,/v1/wealth/documents/pre-upload,Get,,docType=ADDRESS_PROOF&fileName=a.pdf,,200,,{'data.docName':'contains(documents)'},,"data.invtAccDocId,data.publicKey",,,,,,
DocumentController,26,Submit File  upload,/v1/wealth/documents/upload,Post,,,Welab/body/submitUploadFile_incorrect.json,500,,,,,,,,,,
#DocumentController,27,Download the document-500,/v1/wealth/documents/download/1234,Get,,,,500,,,,,,,,,,
DocumentController,28,Download the document-401,/v1/wealth/documents/download/d9b7b7e2-0e7e-47fa-9fa8-9ed46fc7af2d,Get,{Authorization=xxxx},,,401,,,,,,,,,,
DocumentController,29,Download the document,/v1/wealth/documents/download/d9b7b7e2-0e7e-47fa-9fa8-9ed46fc7af2d,Get,,,,200,,,,,,,,,,

