{
  "customerId": null,
  "questionnaireType": "crpq",
  "questions": [
    {
      "fnzQId": "1",
      "questionKey": "RAI01",
      "options": [
        {
          "fnzAId": "5",
          "optionKey": "RAI01e"
        }
      ]
    },
    {
      "fnzQId": "2",
      "questionKey": "RAT01",
      "options": [
        {
          "fnzAId": "5",
          "optionKey": "RAT01e"
        }
      ]
    },
    {
      "fnzQId": "3",
      "questionKey": "RAP01",
      "options": [
        {
          "fnzAId": "5",
          "optionKey": "RAP01e"
        }
      ]
    },
    {
      "fnzQId": "4",
      "questionKey": "RCF01",
      "options": [
        {
          "fnzAId": "5",
          "optionKey": "RCF01e"
        }
      ]
    },
    {
      "fnzQId": "5",
      "questionKey": "RCL01",
      "options": [
        {
          "fnzAId": "5",
          "optionKey": "RCL01e"
        }
      ]
    },
    {
      "fnzQId": "6",
      "questionKey": "RAI02",
      "options": [
        {
          "fnzAId": "5",
          "optionKey": "RAI02e"
        }
      ]
    },
    {
      "fnzQId": "7",
      "questionKey": "RCF02",
      "options": [
        {
          "fnzAId": "5",
          "optionKey": "RCF02e"
        }
      ]
    }
  ],
  "version": "1"
}